slides
…
start with a tibble

run a function on it

output a new tibble

Loading tidyverse automatically converts all data.frames to tibbles

Tibbles: Example I

# look at data
diamonds

# A tibble: 53,940 × 10
   carat cut       color clarity depth table price     x     y     z
   <dbl> <ord>     <ord> <ord>   <dbl> <dbl> <int> <dbl> <dbl> <dbl>
 1  0.23 Ideal     E     SI2      61.5    55   326  3.95  3.98  2.43
 2  0.21 Premium   E     SI1      59.8    61   326  3.89  3.84  2.31
 3  0.23 Good      E     VS1      56.9    65   327  4.05  4.07  2.31
 4  0.29 Premium   I     VS2      62.4    58   334  4.2   4.23  2.63
 5  0.31 Good      J     SI2      63.3    58   335  4.34  4.35  2.75
 6  0.24 Very Good J     VVS2     62.8    57   336  3.94  3.96  2.48
 7  0.24 Very Good I     VVS1     62.3    57   336  3.95  3.98  2.47
 8  0.26 Very Good H     SI1      61.9    55   337  4.07  4.11  2.53
 9  0.22 Fair      E     VS2      65.1    61   337  3.87  3.78  2.49
10  0.23 Very Good H     VS1      59.4    61   338  4     4.05  2.39
# ℹ 53,930 more rows
…
Create a tibble from a data.frame with as_tibble()

as_tibble(diamonds)

# A tibble: 53,940 × 10
   carat cut       color clarity depth table price     x     y     z
   <dbl> <ord>     <ord> <ord>   <dbl> <dbl> <int> <dbl> <dbl> <dbl>
 1  0.23 Ideal     E     SI2      61.5    55   326  3.95  3.98  2.43
 2  0.21 Premium   E     SI1      59.8    61   326  3.89  3.84  2.31
 3  0.23 Good      E     VS1      56.9    65   327  4.05  4.07  2.31
 4  0.29 Premium   I     VS2      62.4    58   334  4.2   4.23  2.63
 5  0.31 Good      J     SI2      63.3    58   335  4.34  4.35  2.75
 6  0.24 Very Good J     VVS2     62.8    57   336  3.94  3.96  2.48
 7  0.24 Very Good I     VVS1     62.3    57   336  3.95  3.98  2.47
 8  0.26 Very Good H     SI1      61.9    55   337  4.07  4.11  2.53
 9  0.22 Fair      E     VS2      65.1    61   337  3.87  3.78  2.49
10  0.23 Very Good H     VS1      59.4    61   338  4     4.05  2.39
# ℹ 53,930 more rows
…
arrange(): Reorder observations

arrange()

arrange reorders observations (rows) in a logical order

e.g. alphabetical, numeric, small to large

# order by smallest to largest pop
gapminder %>%
  arrange(pop)

# A tibble: 1,704 × 6
   country               continent  year lifeExp   pop gdpPercap
   <fct>                 <fct>     <int>   <dbl> <int>     <dbl>
 1 Sao Tome and Principe Africa     1952    46.5 60011      880.
 2 Sao Tome and Principe Africa     1957    48.9 61325      861.
 3 Djibouti              Africa     1952    34.8 63149     2670.
 4 Sao Tome and Principe Africa     1962    51.9 65345     1072.
 5 Sao Tome and Principe Africa     1967    54.4 70787     1385.
 6 Djibouti              Africa     1957    37.3 71851     2865.
 7 Sao Tome and Principe Africa     1972    56.5 76595     1533.
 8 Sao Tome and Principe Africa     1977    58.6 86796     1738.
 9 Djibouti              Africa     1962    39.7 89898     3021.
10 Sao Tome and Principe Africa     1982    60.4 98593     1890.
# ℹ 1,694 more rows

arrange(): Ties

Break ties in the value of one variable with the values of additional variables

# order by year, with the smallest to largest pop in each year
gapminder %>%
  arrange(year, pop)

# A tibble: 1,704 × 6
   country               continent  year lifeExp    pop gdpPercap
   <fct>                 <fct>     <int>   <dbl>  <int>     <dbl>
 1 Sao Tome and Principe Africa     1952    46.5  60011      880.
 2 Djibouti              Africa     1952    34.8  63149     2670.
 3 Bahrain               Asia       1952    50.9 120447     9867.
 4 Iceland               Europe     1952    72.5 147962     7268.
 5 Comoros               Africa     1952    40.7 153936     1103.
 6 Kuwait                Asia       1952    55.6 160000   108382.
 7 Equatorial Guinea     Africa     1952    34.5 216964      376.
 8 Reunion               Africa     1952    52.7 257700     2719.
 9 Gambia                Africa     1952    30   284320      485.
10 Swaziland             Africa     1952    41.4 290243     1148.
# ℹ 1,694 more rows
…
select()

select keeps only selected variables (columns)

Don’t need quotes around column names

# keep only country, year, and population variables
gapminder %>%
  select(country, year, pop)

# A tibble: 1,704 × 3
   country      year      pop
   <fct>       <int>    <int>
 1 Afghanistan  1952  8425333
 2 Afghanistan  1957  9240934
 3 Afghanistan  1962 10267083
 4 Afghanistan  1967 11537966
 5 Afghanistan  1972 13079460
 6 Afghanistan  1977 14880372
 7 Afghanistan  1982 12881816
 8 Afghanistan  1987 13867957
 9 Afghanistan  1992 16317921
10 Afghanistan  1997 22227415
# ℹ 1,694 more rows

select() except

select “all except” by negating a variable with -

# keep all variables *except* gdpPercap
gapminder %>%
  select(-gdpPercap)

# A tibble: 1,704 × 5
   country     continent  year lifeExp      pop
   <fct>       <fct>     <int>   <dbl>    <int>
 1 Afghanistan Asia       1952    28.8  8425333
 2 Afghanistan Asia       1957    30.3  9240934
 3 Afghanistan Asia       1962    32.0 10267083
 4 Afghanistan Asia       1967    34.0 11537966
 5 Afghanistan Asia       1972    36.1 13079460
 6 Afghanistan Asia       1977    38.4 14880372
 7 Afghanistan Asia       1982    39.9 12881816
 8 Afghanistan Asia       1987    40.8 13867957
 9 Afghanistan Asia       1992    41.7 16317921
10 Afghanistan Asia       1997    41.8 22227415
# ℹ 1,694 more rows

select(): Reordering columns

select reorders the columns in the order you provide

sometimes useful to keep all variables, and drag one or a few to the front, add everything() at the end

# move pop to first column
gapminder %>%
  select(pop, everything())

# A tibble: 1,704 × 6
        pop country     continent  year lifeExp gdpPercap
      <int> <fct>       <fct>     <int>   <dbl>     <dbl>
 1  8425333 Afghanistan Asia       1952    28.8      779.
 2  9240934 Afghanistan Asia       1957    30.3      821.
 3 10267083 Afghanistan Asia       1962    32.0      853.
 4 11537966 Afghanistan Asia       1967    34.0      836.
 5 13079460 Afghanistan Asia       1972    36.1      740.
 6 14880372 Afghanistan Asia       1977    38.4      786.
 7 12881816 Afghanistan Asia       1982    39.9      978.
 8 13867957 Afghanistan Asia       1987    40.8      852.
 9 16317921 Afghanistan Asia       1992    41.7      649.
10 22227415 Afghanistan Asia       1997    41.8      635.
# ℹ 1,694 more rows

select() Helper Functions

select has a lot of helper functions, useful for when you have hundreds of variables

see ?select() for a list

# keep all variables starting with "co"
gapminder %>%
  select(starts_with("co"))

# A tibble: 1,704 × 2
   country     continent
   <fct>       <fct>    
 1 Afghanistan Asia     
 2 Afghanistan Asia     
 3 Afghanistan Asia     
 4 Afghanistan Asia     
 5 Afghanistan Asia     
 6 Afghanistan Asia     
 7 Afghanistan Asia     
 8 Afghanistan Asia     
 9 Afghanistan Asia     
10 Afghanistan Asia     
# ℹ 1,694 more rows

select() Helper Functions

select has a lot of helper functions, useful for when you have hundreds of variables

see ?select() for a list

# keep country and all variables containing "per"
gapminder %>%
  select(country, contains("per"))

# A tibble: 1,704 × 2
   country     gdpPercap
   <fct>           <dbl>
 1 Afghanistan      779.
 2 Afghanistan      821.
 3 Afghanistan      853.
 4 Afghanistan      836.
 5 Afghanistan      740.
 6 Afghanistan      786.
 7 Afghanistan      978.
 8 Afghanistan      852.
 9 Afghanistan      649.
10 Afghanistan      635.
# ℹ 1,694 more rows

rename() Variables

rename changes the name of a variable (column)

Format: new_name = old_name

# rename gdpPercap to GDP and lifeExp to population
gapminder %>%
  rename(GDP = gdpPercap,
         LE = lifeExp)

# A tibble: 1,704 × 6
   country     continent  year    LE      pop   GDP
   <fct>       <fct>     <int> <dbl>    <int> <dbl>
 1 Afghanistan Asia       1952  28.8  8425333  779.
 2 Afghanistan Asia       1957  30.3  9240934  821.
 3 Afghanistan Asia       1962  32.0 10267083  853.
 4 Afghanistan Asia       1967  34.0 11537966  836.
 5 Afghanistan Asia       1972  36.1 13079460  740.
 6 Afghanistan Asia       1977  38.4 14880372  786.
 7 Afghanistan Asia       1982  39.9 12881816  978.
 8 Afghanistan Asia       1987  40.8 13867957  852.
 9 Afghanistan Asia       1992  41.7 16317921  649.
10 Afghanistan Asia       1997  41.8 22227415  635.
# ℹ 1,694 more rows
…
filter()

filter keeps only selected observations (rows)

# look only at African observations
gapminder %>%
  filter(continent == "Africa")

# A tibble: 624 × 6
   country continent  year lifeExp      pop gdpPercap
   <fct>   <fct>     <int>   <dbl>    <int>     <dbl>
 1 Algeria Africa     1952    43.1  9279525     2449.
 2 Algeria Africa     1957    45.7 10270856     3014.
 3 Algeria Africa     1962    48.3 11000948     2551.
 4 Algeria Africa     1967    51.4 12760499     3247.
 5 Algeria Africa     1972    54.5 14760787     4183.
 6 Algeria Africa     1977    58.0 17152804     4910.
 7 Algeria Africa     1982    61.4 20033753     5745.
 8 Algeria Africa     1987    65.8 23254956     5681.
 9 Algeria Africa     1992    67.7 26298373     5023.
10 Algeria Africa     1997    69.2 29072015     4797.
# ℹ 614 more rows
…
See ?Comparison and ?Base::Logic.

Recall one = assigns values to an object, two == tests an object for a condition!

filter() with Conditionals I

Can chain multiple conditions with a ,

# look only at African observations in 1997
gapminder %>%
  filter(continent == "Africa",
         year == 1997)

# A tibble: 52 × 6
   country                  continent  year lifeExp      pop gdpPercap
   <fct>                    <fct>     <int>   <dbl>    <int>     <dbl>
 1 Algeria                  Africa     1997    69.2 29072015     4797.
 2 Angola                   Africa     1997    41.0  9875024     2277.
 3 Benin                    Africa     1997    54.8  6066080     1233.
 4 Botswana                 Africa     1997    52.6  1536536     8647.
 5 Burkina Faso             Africa     1997    50.3 10352843      946.
 6 Burundi                  Africa     1997    45.3  6121610      463.
 7 Cameroon                 Africa     1997    52.2 14195809     1694.
 8 Central African Republic Africa     1997    46.1  3696513      741.
 9 Chad                     Africa     1997    51.6  7562011     1005.
10 Comoros                  Africa     1997    60.7   527982     1174.
# ℹ 42 more rows

filter() with Conditionals II

# look only at African observations OR observations in 1997
gapminder %>%
  filter(continent == "Africa" | 
         year == 1997)

# A tibble: 714 × 6
   country     continent  year lifeExp      pop gdpPercap
   <fct>       <fct>     <int>   <dbl>    <int>     <dbl>
 1 Afghanistan Asia       1997    41.8 22227415      635.
 2 Albania     Europe     1997    73.0  3428038     3193.
 3 Algeria     Africa     1952    43.1  9279525     2449.
 4 Algeria     Africa     1957    45.7 10270856     3014.
 5 Algeria     Africa     1962    48.3 11000948     2551.
 6 Algeria     Africa     1967    51.4 12760499     3247.
 7 Algeria     Africa     1972    54.5 14760787     4183.
 8 Algeria     Africa     1977    58.0 17152804     4910.
 9 Algeria     Africa     1982    61.4 20033753     5745.
10 Algeria     Africa     1987    65.8 23254956     5681.
# ℹ 704 more rows
…
Create a variable that is a specific value (often categorical)

Change an existing variable (often rescaling)

Create a variable based on other variables

mutate(): Setting a Specific Value

# create variable called "europe" if country is in Europe
mutate(gapminder, 
       europe = case_when(continent == "Europe" ~ "In Europe",
                          continent != "Europe" ~ "Not in Europe"))

# A tibble: 1,704 × 7
   country     continent  year lifeExp      pop gdpPercap europe       
   <fct>       <fct>     <int>   <dbl>    <int>     <dbl> <chr>        
 1 Afghanistan Asia       1952    28.8  8425333      779. Not in Europe
 2 Afghanistan Asia       1957    30.3  9240934      821. Not in Europe
 3 Afghanistan Asia       1962    32.0 10267083      853. Not in Europe
 4 Afghanistan Asia       1967    34.0 11537966      836. Not in Europe
 5 Afghanistan Asia       1972    36.1 13079460      740. Not in Europe
 6 Afghanistan Asia       1977    38.4 14880372      786. Not in Europe
 7 Afghanistan Asia       1982    39.9 12881816      978. Not in Europe
 8 Afghanistan Asia       1987    40.8 13867957      852. Not in Europe
 9 Afghanistan Asia       1992    41.7 16317921      649. Not in Europe
10 Afghanistan Asia       1997    41.8 22227415      635. Not in Europe
# ℹ 1,694 more rows

mutate(): Changing a Variable’s Scale

# create population in millions variable
gapminder %>%
  mutate(pop_mil = pop / 1000000)

# A tibble: 1,704 × 7
   country     continent  year lifeExp      pop gdpPercap pop_mil
   <fct>       <fct>     <int>   <dbl>    <int>     <dbl>   <dbl>
 1 Afghanistan Asia       1952    28.8  8425333      779.    8.43
 2 Afghanistan Asia       1957    30.3  9240934      821.    9.24
 3 Afghanistan Asia       1962    32.0 10267083      853.   10.3 
 4 Afghanistan Asia       1967    34.0 11537966      836.   11.5 
 5 Afghanistan Asia       1972    36.1 13079460      740.   13.1 
 6 Afghanistan Asia       1977    38.4 14880372      786.   14.9 
 7 Afghanistan Asia       1982    39.9 12881816      978.   12.9 
 8 Afghanistan Asia       1987    40.8 13867957      852.   13.9 
 9 Afghanistan Asia       1992    41.7 16317921      649.   16.3 
10 Afghanistan Asia       1997    41.8 22227415      635.   22.2 
# ℹ 1,694 more rows

mutate(): Variable Based on Other Variables

# create GDP variable from gdpPercap and pop, in billions
gapminder %>%
  mutate(GDP = ((gdpPercap * pop) / 1000000000))

# A tibble: 1,704 × 7
   country     continent  year lifeExp      pop gdpPercap   GDP
   <fct>       <fct>     <int>   <dbl>    <int>     <dbl> <dbl>
 1 Afghanistan Asia       1952    28.8  8425333      779.  6.57
 2 Afghanistan Asia       1957    30.3  9240934      821.  7.59
 3 Afghanistan Asia       1962    32.0 10267083      853.  8.76
 4 Afghanistan Asia       1967    34.0 11537966      836.  9.65
 5 Afghanistan Asia       1972    36.1 13079460      740.  9.68
 6 Afghanistan Asia       1977    38.4 14880372      786. 11.7 
 7 Afghanistan Asia       1982    39.9 12881816      978. 12.6 
 8 Afghanistan Asia       1987    40.8 13867957      852. 11.8 
 9 Afghanistan Asia       1992    41.7 16317921      649. 10.6 
10 Afghanistan Asia       1997    41.8 22227415      635. 14.1 
# ℹ 1,694 more rows

mutate(): Change Class of Variable

Change class of a variable inside mutate() with as.*()

# change year variable from an integer to a factor
gapminder %>%
  mutate(year = as.factor(year))

# A tibble: 1,704 × 6
   country     continent year  lifeExp      pop gdpPercap
   <fct>       <fct>     <fct>   <dbl>    <int>     <dbl>
 1 Afghanistan Asia      1952     28.8  8425333      779.
 2 Afghanistan Asia      1957     30.3  9240934      821.
 3 Afghanistan Asia      1962     32.0 10267083      853.
 4 Afghanistan Asia      1967     34.0 11537966      836.
 5 Afghanistan Asia      1972     36.1 13079460      740.
 6 Afghanistan Asia      1977     38.4 14880372      786.
 7 Afghanistan Asia      1982     39.9 12881816      978.
 8 Afghanistan Asia      1987     40.8 13867957      852.
 9 Afghanistan Asia      1992     41.7 16317921      649.
10 Afghanistan Asia      1997     41.8 22227415      635.
# ℹ 1,694 more rows

mutate(): Create Multiple Variables

Can create multiple new variables with commas:

gapminder %>%
  mutate(GDP = gdpPercap * pop,
         pop_millions = pop / 1000000)

# A tibble: 1,704 × 8
   country     continent  year lifeExp      pop gdpPercap       GDP pop_millions
   <fct>       <fct>     <int>   <dbl>    <int>     <dbl>     <dbl>        <dbl>
 1 Afghanistan Asia       1952    28.8  8425333      779.   6.57e 9         8.43
 2 Afghanistan Asia       1957    30.3  9240934      821.   7.59e 9         9.24
 3 Afghanistan Asia       1962    32.0 10267083      853.   8.76e 9        10.3 
 4 Afghanistan Asia       1967    34.0 11537966      836.   9.65e 9        11.5 
 5 Afghanistan Asia       1972    36.1 13079460      740.   9.68e 9        13.1 
 6 Afghanistan Asia       1977    38.4 14880372      786.   1.17e10        14.9 
 7 Afghanistan Asia       1982    39.9 12881816      978.   1.26e10        12.9 
 8 Afghanistan Asia       1987    40.8 13867957      852.   1.18e10        13.9 
 9 Afghanistan Asia       1992    41.7 16317921      649.   1.06e10        16.3 
10 Afghanistan Asia       1997    41.8 22227415      635.   1.41e10        22.2 
# ℹ 1,694 more rows

transmute(): Keep Only New Variables

transmute keeps only newly created variables (it select()s only the new mutate()d variables)

gapminder %>%
  transmute(GDP = gdpPercap * pop,
            pop_millions = pop / 1000000)

# A tibble: 1,704 × 2
            GDP pop_millions
          <dbl>        <dbl>
 1  6567086330.         8.43
 2  7585448670.         9.24
 3  8758855797.        10.3 
 4  9648014150.        11.5 
 5  9678553274.        13.1 
 6 11697659231.        14.9 
 7 12598563401.        12.9 
 8 11820990309.        13.9 
 9 10595901589.        16.3 
10 14121995875.        22.2 
# ℹ 1,694 more rows

mutate(): Conditionals

Boolean, logical, and conditionals all work well in mutate():

gapminder %>%
  select(country, year, lifeExp) %>%
  mutate(long_life_1 = lifeExp > 70,
         long_life_2 = case_when(lifeExp > 70 ~ "Long",
                            lifeExp <= 70 ~ "Short"))

# A tibble: 1,704 × 5
   country      year lifeExp long_life_1 long_life_2
   <fct>       <int>   <dbl> <lgl>       <chr>      
 1 Afghanistan  1952    28.8 FALSE       Short      
 2 Afghanistan  1957    30.3 FALSE       Short      
 3 Afghanistan  1962    32.0 FALSE       Short      
 4 Afghanistan  1967    34.0 FALSE       Short      
 5 Afghanistan  1972    36.1 FALSE       Short      
 6 Afghanistan  1977    38.4 FALSE       Short      
 7 Afghanistan  1982    39.9 FALSE       Short      
 8 Afghanistan  1987    40.8 FALSE       Short      
 9 Afghanistan  1992    41.7 FALSE       Short      
10 Afghanistan  1997    41.8 FALSE       Short      
# ℹ 1,694 more rows

mutate() is Order Aware

mutate() is order-aware, so you can chain multiple mutates that depend on previous mutates

gapminder %>%
  select(country, year, lifeExp) %>%
  mutate(dog_years = lifeExp * 7,
         comment = paste("Life expectancy in", country, "is", dog_years, "in dog years.", sep = " "))

# A tibble: 1,704 × 5
   country      year lifeExp dog_years comment                                  
   <fct>       <int>   <dbl>     <dbl> <chr>                                    
 1 Afghanistan  1952    28.8      202. Life expectancy in Afghanistan is 201.60…
 2 Afghanistan  1957    30.3      212. Life expectancy in Afghanistan is 212.32…
 3 Afghanistan  1962    32.0      224. Life expectancy in Afghanistan is 223.97…
 4 Afghanistan  1967    34.0      238. Life expectancy in Afghanistan is 238.14…
 5 Afghanistan  1972    36.1      253. Life expectancy in Afghanistan is 252.61…
 6 Afghanistan  1977    38.4      269. Life expectancy in Afghanistan is 269.06…
 7 Afghanistan  1982    39.9      279. Life expectancy in Afghanistan is 278.97…
 8 Afghanistan  1987    40.8      286. Life expectancy in Afghanistan is 285.75…
 9 Afghanistan  1992    41.7      292. Life expectancy in Afghanistan is 291.71…
10 Afghanistan  1997    41.8      292. Life expectancy in Afghanistan is 292.34…
# ℹ 1,694 more rows
…
