slides
…
Calculating \(R^2\) in R I

Recall broom’s augment() command makes a lot of new regression-based values like:

.fitted: predicted values \((\hat{Y_i})\)

.resid: residuals \((\hat{u_i})\)

library(broom)
school_reg %>%
  augment()

# A tibble: 420 × 8
   testscr   str .fitted .resid    .hat .sigma  .cooksd .std.resid
     <dbl> <dbl>   <dbl>  <dbl>   <dbl>  <dbl>    <dbl>      <dbl>
 1    691.  17.9    658.   32.7 0.00442   18.5 0.00689       1.76 
 2    661.  21.5    650.   11.3 0.00475   18.6 0.000893      0.612
 3    644.  18.7    656.  -12.7 0.00297   18.6 0.000700     -0.685
 4    648.  17.4    659.  -11.7 0.00586   18.6 0.00117      -0.629
 5    641.  18.7    656.  -15.5 0.00301   18.6 0.00105      -0.836
 6    606.  21.4    650.  -44.6 0.00446   18.5 0.0130       -2.40 
 7    607.  19.5    654.  -47.7 0.00239   18.5 0.00794      -2.57 
 8    609   20.9    651.  -42.3 0.00343   18.5 0.00895      -2.28 
 9    612.  19.9    653.  -41.0 0.00244   18.5 0.00597      -2.21 
10    613.  20.8    652.  -38.9 0.00329   18.5 0.00723      -2.09 
# … with 410 more rows
…
