ECON 480 — Econometrics - ggplot2 Extensions
…
So let’s filter4 arrange our data in descending order by gdpPercap:

gap2007 %>%
  arrange(desc(gdpPercap))

# A tibble: 142 × 6
   country          continent  year lifeExp       pop gdpPercap
   <fct>            <fct>     <int>   <dbl>     <int>     <dbl>
 1 Norway           Europe     2007    80.2   4627926    49357.
 2 Kuwait           Asia       2007    77.6   2505559    47307.
 3 Singapore        Asia       2007    80.0   4553009    47143.
 4 United States    Americas   2007    78.2 301139947    42952.
 5 Ireland          Europe     2007    78.9   4109086    40676.
 6 Hong Kong, China Asia       2007    82.2   6980412    39725.
 7 Switzerland      Europe     2007    81.7   7554661    37506.
 8 Netherlands      Europe     2007    79.8  16570613    36798.
 9 Canada           Americas   2007    80.7  33390141    36319.
10 Iceland          Europe     2007    81.8    301931    36181.
# … with 132 more rows
…
